Date,Reason
January 1 2019,New Year's Day
January 21 2019,Martin Luther King, Jr. Day
February 18 2019,Washington's Birthday
April 19 2019,Good Friday
May 27 2019,Memorial Day
July 3 2019,Independence Day
July 4 2019,Independence Day
September 2 2019,Labor Day
November 28 2019,Thanksgiving Day
November 29 2019,Thanksgiving Day
December 24 2019,Christmas Day
December 25 2019,Christmas Day
